<svg width="52" height="52" viewBox="0 0 52 52" fill="none" xmlns="http://www.w3.org/2000/svg">
<path d="M12.8573 12.8575C5.7675 19.9473 5.7675 31.4823 12.8573 38.5721C19.9471 45.6619 31.4821 45.6619 38.5719 38.5721C45.6617 31.4823 45.6617 19.9473 38.5719 12.8575C31.4821 5.76774 19.9471 5.76774 12.8573 12.8575Z" fill="#F44336"/>
<path d="M33.6692 24.1997C34.5071 24.1999 35.1841 24.8769 35.1843 25.7148C35.1843 26.1327 35.015 26.512 34.7405 26.7864C34.4663 27.0607 34.087 27.23 33.6692 27.23L27.2297 27.2298L27.2299 33.6692C27.2299 34.0871 27.0606 34.4663 26.7864 34.7406C26.5119 35.0151 26.1327 35.1844 25.7148 35.1844C24.8769 35.1842 24.1998 34.5072 24.1996 33.6692L24.1998 27.2298L17.7604 27.23C16.9225 27.2298 16.2454 26.5528 16.2452 25.7148C16.2454 24.8769 16.9225 24.1999 17.7604 24.1997L24.1998 24.1999L24.1996 17.7605C24.1998 16.9225 24.8769 16.2455 25.7148 16.2453C26.5527 16.2455 27.2297 16.9225 27.2299 17.7605L27.2297 24.1999L33.6692 24.1997Z" fill="#FAFAFA"/>
</svg>
