<svg width="32" height="32" viewBox="0 0 32 32" fill="none" xmlns="http://www.w3.org/2000/svg">
<circle cx="16" cy="16" r="14" fill="#DF2527"/>
<path d="M16 32C12.2116 32 8.53712 30.6523 5.65356 28.2049C4.9765 27.6307 4.34137 26.994 3.766 26.3127C1.33731 23.434 0 19.7717 0 16C0 11.7262 1.66425 7.70825 4.68625 4.68625C7.70825 1.66425 11.7262 0 16 0C20.2738 0 24.2917 1.66425 27.3137 4.68625C30.3357 7.70825 32 11.7262 32 16C32 19.7717 30.6627 23.4341 28.2343 26.3124C27.6586 26.994 27.0235 27.6307 26.3463 28.2051C23.4629 30.6523 19.7884 32 16 32ZM16 2C8.28037 2 2 8.28037 2 16C2 19.3003 3.16994 22.5046 5.29431 25.0227C5.79806 25.6191 6.35438 26.1768 6.9475 26.6799C9.47025 28.8209 12.6851 30 16 30C19.3149 30 22.5298 28.8209 25.0523 26.6801C25.6456 26.1768 26.2019 25.6191 26.706 25.0222C28.8301 22.5047 30 19.3004 30 16C30 8.28037 23.7196 2 16 2Z" fill="white"/>
<path d="M16 16C12.6916 16 10 13.3084 10 10C10 6.69156 12.6916 4 16 4C19.3084 4 22 6.69156 22 10C22 13.3084 19.3084 16 16 16ZM16 6C13.7944 6 12 7.79437 12 10C12 12.2056 13.7944 14 16 14C18.2056 14 20 12.2056 20 10C20 7.79437 18.2056 6 16 6Z" fill="white"/>
<path d="M25.7001 28.4428C25.6195 28.4428 25.5376 28.4329 25.4559 28.4124C24.9202 28.278 24.595 27.7348 24.7294 27.1991C24.9089 26.4839 25 25.744 25 25C25 20.1072 21.0221 16.0709 16.1317 16.0006L16 16L15.8683 16.0006C10.9779 16.0709 7 20.1072 7 25C7 25.744 7.09106 26.4839 7.27056 27.1991C7.405 27.7348 7.07975 28.278 6.54413 28.4124C6.0085 28.5469 5.46519 28.2217 5.33075 27.686C5.11125 26.8117 5 25.908 5 25C5 22.0889 6.12606 19.3448 8.17075 17.2731C10.2134 15.2035 12.9386 14.0414 15.8441 14.0007C15.8488 14.0007 15.8534 14.0007 15.8581 14.0007L16 14L16.1419 14.0006C16.1466 14.0006 16.1512 14.0006 16.1559 14.0007C19.0614 14.0413 21.7866 15.2034 23.8293 17.2731C25.8739 19.3448 27 22.0889 27 25C27 25.908 26.8888 26.8117 26.6693 27.686C26.5553 28.1399 26.1478 28.4427 25.7001 28.4428Z" fill="white"/>
</svg>
