<svg width="39" height="39" viewBox="0 0 39 39" fill="none" xmlns="http://www.w3.org/2000/svg">
<path d="M10.6713 10.747C12.8763 8.52338 15.9299 7.1436 19.2869 7.14685C22.3819 7.14987 25.2058 8.31188 27.3475 10.2228C27.6544 10.4965 28.1469 10.4785 28.4377 10.1878L32.367 6.25846C32.6869 5.9385 32.6781 5.41565 32.3456 5.10877C28.8434 1.87609 24.1405 -0.0746107 18.9812 0.00218679C13.765 0.0798157 9.04662 2.24655 5.61901 5.69465C5.23683 6.07909 5.68386 10.7333 5.68386 10.7333C5.68386 10.7333 8.51985 12.9166 10.6713 10.747Z" fill="white"/>
<path d="M10.6714 10.7472C12.8764 8.52367 15.93 7.14389 19.287 7.14714C22.3821 7.15016 25.2059 8.31218 27.3476 10.223C27.6545 10.4968 28.147 10.4788 28.4378 10.188L30.6927 7.93318C30.4963 7.7814 30.3026 7.62206 30.1137 7.45471C27.174 4.85123 23.3493 3.19456 19.1035 3.23916C14.7002 3.28542 10.7452 5.08139 7.88549 7.96115C7.57278 8.27605 7.44995 10.7386 7.44995 10.7386C7.44995 10.7386 7.81686 10.7054 10.6714 10.7472Z" fill="white"/>
<path d="M7.14763 19.1659C7.11739 22.5779 8.49612 25.6679 10.7365 27.8895L9.01692 31.6005L5.68349 32.9425C2.17922 29.4572 0.00757868 24.6339 1.98751e-05 19.3034C-0.00753893 14.01 2.14143 9.19277 5.61924 5.69531L10.6715 10.7476C8.5203 12.917 7.17635 15.8899 7.14763 19.1659Z" fill="white"/>
<path d="M7.14764 19.1646C7.11741 22.5766 8.49613 25.6667 10.7366 27.8882L7.97382 30.6517C5.10601 27.8036 3.30928 23.8783 3.2405 19.5335C3.16869 15.0141 4.9503 10.9164 7.88614 7.96094L10.6716 10.7464C8.52032 12.9157 7.17637 15.8886 7.14764 19.1646Z" fill="white"/>
<path d="M27.8233 27.8994C25.6133 30.0893 22.5622 31.4247 19.1965 31.4034C15.8976 31.3825 12.9118 30.0441 10.7375 27.8887L5.68396 32.9422C9.1558 36.3949 13.9352 38.5342 19.2145 38.5504C24.5046 38.5667 29.3157 36.3913 32.8158 32.8921L31.3715 29.8038L27.8233 27.8994Z" fill="white"/>
<path d="M27.8232 27.8991C25.613 30.089 22.5621 31.4248 19.1965 31.4036C15.8976 31.3827 12.9119 30.0443 10.7375 27.8887L7.97388 30.6523C10.8729 33.5323 14.8661 35.3122 19.275 35.3122C23.6842 35.3122 27.6772 33.5322 30.5763 30.6523L27.8232 27.8991Z" fill="white"/>
<path d="M38.55 17.2955C38.55 16.9155 38.2419 16.6074 37.8619 16.6074H19.9203C19.5799 16.6074 19.304 16.8834 19.304 17.2238V23.156C19.304 23.4964 19.5799 23.7723 19.9203 23.7723H28.6825C29.5851 23.7723 30.1455 24.7573 29.6813 25.5312C29.1631 26.395 28.5399 27.1867 27.8304 27.8908C27.8278 27.8935 27.826 27.8961 27.8233 27.8988L32.8166 32.8922C33.0524 32.6564 33.2916 32.4205 33.5327 32.184C36.6526 28.724 38.55 24.1336 38.55 19.1258V17.2955Z" fill="white"/>
<path d="M34.5014 24.3219C35.2066 22.1903 33.6268 19.9922 31.3819 19.9922H19.304V23.1551C19.304 23.4955 19.5799 23.7714 19.9203 23.7714H28.6825C29.5851 23.7714 30.1455 24.7564 29.6813 25.5303C29.1648 26.3913 28.5438 27.1805 27.8372 27.8829C27.8323 27.888 27.8284 27.8928 27.8233 27.8979L30.5762 30.6509C32.0396 29.1988 33.2233 27.4656 34.0419 25.5396C34.2104 25.1412 34.3638 24.7353 34.5014 24.3219Z" fill="white"/>
</svg>
