<svg width="37" height="37" viewBox="0 0 37 37" fill="none" xmlns="http://www.w3.org/2000/svg">
<path d="M30.2727 23.5457C28.0393 23.5457 26.9091 21.8639 26.9091 18.5003C26.9641 13.8007 23.199 9.94642 18.4993 9.8914C13.7996 9.83637 9.94537 13.6015 9.89034 18.3012C9.83531 23.0008 13.6005 26.8551 18.3002 26.9101C20.8189 26.9396 23.2214 25.8517 24.8607 23.9393C25.9774 25.8531 28.0585 26.9951 30.2727 26.9093C37 26.9093 37 20.579 37 18.5003C37.0002 8.28317 28.7176 0.000315348 18.5004 9.0039e-09C8.28321 -0.00031533 0.000315343 8.28238 2.25107e-09 18.4997C-0.000157668 28.7168 8.28242 36.9997 18.4996 37C23.2999 37.0002 27.9124 35.1343 31.3625 31.7969C32.0304 31.1467 32.0446 30.0783 31.3945 29.4104C30.7443 28.7425 29.6759 28.7283 29.008 29.3784C22.9912 35.1818 13.4089 35.0086 7.60554 28.9918C1.80217 22.975 1.97529 13.3928 7.99215 7.58943C14.009 1.78608 23.5913 1.9592 29.3946 7.97603C32.1198 10.8015 33.6407 14.5751 33.6364 18.5005C33.6364 22.271 32.7888 23.5457 30.2727 23.5457ZM18.5001 23.5457C15.7136 23.5457 13.4546 21.2868 13.4546 18.5003C13.4546 15.7138 15.7136 13.4549 18.5001 13.4549C21.2866 13.4549 23.5455 15.7138 23.5455 18.5003C23.5455 21.2868 21.2866 23.5457 18.5001 23.5457Z" fill="white"/>
</svg>
