<?xml version="1.0" encoding="utf-8"?>
<!-- Generator: Adobe Illustrator 16.2.0, SVG Export Plug-In . SVG Version: 6.00 Build 0)  -->
<!DOCTYPE svg PUBLIC "-//W3C//DTD SVG 1.1//EN" "http://www.w3.org/Graphics/SVG/1.1/DTD/svg11.dtd">
<svg version="1.1" id="Layer_1" xmlns="http://www.w3.org/2000/svg" xmlns:xlink="http://www.w3.org/1999/xlink" x="0px" y="0px"
	 width="32px" height="32px" viewBox="0 0 32 32" enable-background="new 0 0 32 32" xml:space="preserve">
<path d="M9.205,14.276l9.586-9.585c0.879-0.878,2.316-0.878,3.195,0l0.801,0.8c0.878,0.877,0.878,2.316,0,3.194L15.472,16
	l7.315,7.314c0.878,0.879,0.878,2.317,0,3.194l-0.801,0.8c-0.879,0.879-2.316,0.879-3.195,0l-9.586-9.586
	C8.733,17.252,8.524,16.62,8.558,16C8.524,15.38,8.733,14.748,9.205,14.276z"/>
</svg>
