<svg xmlns="http://www.w3.org/2000/svg" width="25.263" height="22.203" viewBox="0 0 25.263 22.203">
  <g id="upload" transform="translate(0 0)">
    <g id="Group_1504" data-name="Group 1504" transform="translate(0 15.243)">
      <g id="Group_1503" data-name="Group 1503" transform="translate(0 0)">
        <path id="Path_4891" data-name="Path 4891" d="M24.62,339.95a.643.643,0,0,0-.643.643v2.457a2.575,2.575,0,0,1-2.572,2.572H3.859a2.575,2.575,0,0,1-2.572-2.572v-2.457a.643.643,0,1,0-1.286,0v2.457a3.863,3.863,0,0,0,3.859,3.859H21.4a3.863,3.863,0,0,0,3.859-3.859v-2.457A.643.643,0,0,0,24.62,339.95Z" transform="translate(0 -339.95)" fill="#a67c52"/>
      </g>
    </g>
    <g id="Group_1506" data-name="Group 1506" transform="translate(3.905 17.777)">
      <g id="Group_1505" data-name="Group 1505">
        <path id="Path_4892" data-name="Path 4892" d="M95.944,391.3H79.776a.643.643,0,1,0,0,1.286H95.943a.643.643,0,0,0,0-1.286Z" transform="translate(-79.133 -391.305)" fill="#a67c52"/>
      </g>
    </g>
    <g id="Group_1508" data-name="Group 1508" transform="translate(5.959)">
      <g id="Group_1507" data-name="Group 1507" transform="translate(0 0)">
        <path id="Path_4893" data-name="Path 4893" d="M133.9,36.23l-5.387-4.812a1.607,1.607,0,0,0-2.142,0l-5.387,4.812a.643.643,0,0,0,.857.959l4.958-4.429V45.225a.643.643,0,0,0,1.286,0V32.761l4.958,4.429a.643.643,0,1,0,.857-.959Z" transform="translate(-120.766 -31.009)" fill="#a67c52"/>
      </g>
    </g>
  </g>
</svg>
