{
	"settings": {
		"scripts": {
			"head": [
				"build/js/vendor/jquery-3.2.1.min.js",
				"build/js/vendor/jquery.ba-throttle-debounce.js",
				"https://cdn.rawgit.com/iserdmi/afterlag-js/2.0.2/dist/jquery.afterlag.min.js",
				"https://www.google.com/recaptcha/api.js",
				"build/img/svg/sprite.js"
			],
			"foot": [
				"https://qr.apmcheck.ru/js/widget.min.js",
				"build/js/vendor/jquery.mousewheel.min.js",
				"build/js/vendor/select2.full.min.js",
				"build/js/vendor/swiper.min.js"
			]
		},
		"styles": {
			"head": [
				"https://fonts.googleapis.com/css2?family=Montserrat:wght@400;500;600;700&display=swap"
			]
		},
		"ogDefaults": {
			"title": "Петруха",
			"description": false,
			"image": false
		}
	},
	"nav": [
		{
			"url": "rules.html",
			"title": "Правила",
			"page": "rules",
			"active": true
		},
		{
			"url": "/winners.html",
			"title": "Победители",
			"page": "winners",
			"active": true
		},
		{
			"url": "/products.html",
			"title": "Продукция",
			"page": "products",
			"active": true
		},
		{
			"url": "/about.html",
			"title": "О нас",
			"page": "about",
			"active": true
		},
		{
			"url": "/faq.html",
			"title": "FAQ",
			"page": "faq",
			"active": true
		},
		{
			"url": "#",
			"title": "Загрузить чек",
			"class": "js-scanner-btn btn main-menu__link--load",
			"target": "#qr-popup",
			"active": true
		},
		{
			"url": "/account.html",
			"title": "Личный кабинет",
			"page": "account",
			"class": "btn-popup main-menu__link--lk",
			"target": "#login-popup",
			"active": true
		},
		{
			"menu": true,
			"title": "Петров А.К.",
			"dropdown": [
				{
					"url": "/account.html",
					"title": "Мой профиль",
					"page": "account",
					"active": true
				},
				{
					"url": "/account.html",
					"title": "Коды и призы",
					"page": "account",
					"active": true
				},
				{
					"url": "#",
					"title": "Выход",
					"class": "main-menu__link--logout",
					"page": "account",
					"active": true
				}
			]
		}
	],
	"pages": {
		"dummy": {
			"title": "Старт акции 1&nbsp;июля 2020 года"
		},
		"intro": {
			"logo": {
				"url": "/",
				"icon": "logo"
			},
			"title": "<span class='fire-anim fire-anim--static'>Мастер</span> <span class='line'><span class='fire-anim fire-anim--static'>на&nbsp;миллион</span></span>"
		},
		"home": {
			"subtitle": "<span class='nowrp'><span class='first'><span class='fire-anim'>главный приз</span></span> <span class='line'><span class='fire-anim'>1&nbsp;000&nbsp;000</span></span></span><span class='currency'><span class='fire-anim'>рублей *</span></span>",
			"image": {
				"src": "build/img/gril.png",
				"alt": ""
			},
			"steps": [
				{
					"title": "ПокУПай",
					"text": "2&nbsp;любые упаковки &laquo;Петруха Мастер&raquo;",
					"class": "order-1"
				},
				{
					"title": "ОТПравляй",
					"text": "<span class='inline-text'>фото чека</span> <a class='tp-body--medium btn btn--util js-scanner-btn' href='#' data-target='#qr-popup'>Загрузить чек</a>",
					"class": "order-0"
				},
				{
					"title": "Получай Призы",
					"text": "<span class='steps__row'><span class='sum'>1 000₽</span> каждую неделю,</span><span class='steps__row'><span class='sum'>3 000₽</span> каждый месяц</span>",
					"class": "order-2"
				}
			]
		},
		"account": {
			"title": "КОДЫ И ПРИЗЫ",
			"link": {
				"title": "Каковы шансы на выигрыш?",
				"target": "#products-popup"
			},
			"tabs": [
				{
					"title": "Профайл",
					"id": "profile_tab",
					"subtitle": "Изменение данных",
					"form": [
						{
							"type": "email",
							"name": "email",
							"label": "E-mail",
							"required": "required",
							"error": "поле неправильно заполнено"
						},
						{
							"type": "text",
							"name": "phone",
							"label": "Номер телефона",
							"required": "required",
							"error": "поле неправильно заполнено"
						},
						{
							"type": "password",
							"name": "old-password",
							"label": "Старый пароль",
							"required": "required",
							"error": "поле не заполнено"
						},
						{
							"type": "password",
							"name": "new-password",
							"label": "Новый пароль",
							"required": "required",
							"error": "поле не заполнено"
						},
						{
							"type": "password",
							"name": "repeat-password",
							"label": "Повторите пароль",
							"required": "required",
							"error": "поле не заполнено"
						}
					],
					"btn": {
						"type": "submit",
						"title": "Сохранить"
					}
				},
				{
					"title": "Чеки",
					"id": "checks_tab",
					"table": {
						"cols": {
							"image": "Чек",
							"date": "Дата регистрации",
							"count": "Количество продуктов",
							"staus-check": "Статус проверки"
						},
						"contents": [
							{
								"image": "<a href='#'>изображение</a>",
								"date": "8 июля 2020 г.",
								"count": "2 продукта",
								"staus-check": {
									"state": "win"
								}
							},
							{
								"image": "<a href='#'>изображение</a>",
								"date": "8 июля 2020 г.",
								"count": "4 продукта",
								"staus-check": {
									"state": "lose"
								}
							},
							{
								"image": "<a href='#'>изображение</a>",
								"date": "8 июля 2020 г.",
								"count": "8 продуктов",
								"staus-check": {
									"state": "win"
								}
							},
							{
								"image": "<a href='#'>изображение</a>",
								"date": "8 июля 2020 г.",
								"count": "",
								"staus-check": {
									"state": "lose"
								}
							}
						]
					}
				},
				{
					"title": "Призы",
					"id": "prizes_tab",
					"table": {
						"cols": {
							"date": "Дата регистрации",
							"product": "Продукт",
							"daily": "Еженедельный розыгрыш",
							"weekly": "Ежемесячный розыгрыш",
							"main": "Главный приз"
						},
						"contents": [
							{
								"date": "8 июля 2020 г.",
								"product": "<a href='#'>Чек 1,</a> <br>продукт 1",
								"daily": {
									"state": "win-p"
								},
								"weekly": {
									"state": "waiting"
								},
								"main": {
									"state": "waiting"
								}
							},
							{
								"date": "8 июля 2020 г.",
								"product": "<a href='#'>Чек 2,</a> <br>продукт 1",
								"daily": {
									"state": "lose-p"
								},
								"weekly": {
									"state": "waiting"
								},
								"main": {
									"state": "waiting"
								}
							},
							{
								"date": "8 июля 2020 г.",
								"product": "<a href='#'>Чек 3,</a> <br>продукт 1",
								"daily": {
									"state": "win-p"
								},
								"weekly": {
									"state": "waiting"
								},
								"main": {
									"state": "waiting"
								}
							}
						]
					}
				},
				{
					"title": "Реквизиты для получения призов",
					"id": "props_tab",
					"subtitle": "Паспортные данные",
					"subtitle2": "Реквизиты",
					"form": [
						{
							"type": "text",
							"name": "f-name",
							"label": "Полное имя:",
							"error": "поле неправильно заполнено"
						},
						{
							"type": "text",
							"name": "s-name",
							"error": "поле неправильно заполнено"
						},
						{
							"type": "text",
							"name": "pat-name",
							"error": "поле неправильно заполнено"
						},
						{
							"type": "text",
							"name": "s-pas",
							"label": "Серия и номер:",
							"error": "поле неправильно заполнено"
						},
						{
							"type": "text",
							"name": "n-pas",
							"error": "поле неправильно заполнено"
						},
						{
							"type": "textarea",
							"name": "ag-pas",
							"label": "Кем выдан:",
							"error": "поле неправильно заполнено"
						},
						{
							"type": "text",
							"name": "date-pas",
							"label": "Когда выдан:",
							"error": "поле неправильно заполнено"
						},
						{
							"type": "file",
							"name": "photo-pas",
							"label": "Фото паспорта:",
							"error": "поле неправильно заполнено"
						},
						{
							"type": "textarea",
							"name": "data-pas",
							"label": "Данные регистрации по&nbsp;паспорту:",
							"error": "поле неправильно заполнено"
						},
						{
							"type": "text",
							"name": "inn",
							"label": "Номер ИНН:",
							"error": "поле неправильно заполнено"
						},
						{
							"type": "text",
							"name": "rs",
							"label": "Расчётный счёт:",
							"error": "поле неправильно заполнено"
						},
						{
							"type": "text",
							"name": "bik",
							"label": "БИК банка",
							"error": "поле неправильно заполнено"
						}
					],
					"btn": {
						"type": "submit",
						"title": "Подтвердить данные"
					}
				},
				{
					"title": "Присоединить Whatsapp",
					"id": "whatsapp_tab",
					"subtitle": "Изменение данных",
					"img": {
						"src": "build/img/whatapp.jpg",
						"alt": ""
					},
					"text": [
						"Если ранее загружались чеки через WhatsApp, вы&nbsp;можете добавить их&nbsp;в&nbsp;данную учётную запись на&nbsp;сайте введя команду &laquo;сайт&raquo; в&nbsp;диалоге с&nbsp;чат-ботом",
						"В&nbsp;ответ вы&nbsp;получите код для привязки WhatsApp-аккаунта, введите его в&nbsp;поле ниже:"
					],
					"form": [
						{
							"type": "text",
							"name": "code",
							"label": "Код из сообщения",
							"required": "required",
							"error": "поле неправильно заполнено"
						}
					],
					"btn": {
						"type": "submit",
						"title": "Сохранить"
					}
				}
			]
		},
		"winners": {
			"title": "победители",
			"search": {
				"id": "winners-search",
				"title": "введите e-mail или телефон"
			},
			"pagenav": {
				"title": "Перейти на страницу:",
				"start": "в начало",
				"pages": [
					5, 6, 7
				],
				"end": "последняя"
			},
			"tabs": [
				{
					"title": "1000 рублей",
					"id": "daily_prize_tab",
					"table": {
						"cols": {
							"prize": "Приз",
							"phone": "Номер телефона",
							"date": "Дата"
						},
						"contents": [
							{
								"prize": "1000 рублей",
								"phone": "*** ***-09-01 / **bus@mail.ru",
								"date": "2019-10-11  12:30"
							},
							{
								"prize": "1000 рублей",
								"phone": "*** ***-09-01 / **bus@mail.ru",
								"date": "2019-10-11  12:30"
							},
							{
								"prize": "1000 рублей",
								"phone": "*** ***-09-01 / **bus@mail.ru",
								"date": "2019-10-11  12:30"
							},
							{
								"prize": "1000 рублей",
								"phone": "*** ***-09-01 / **bus@mail.ru",
								"date": "2019-10-11  12:30"
							},
							{
								"prize": "1000 рублей",
								"phone": "*** ***-09-01 / **bus@mail.ru",
								"date": "2019-10-11  12:30"
							},
							{
								"prize": "1000 рублей",
								"phone": "*** ***-09-01 / **bus@mail.ru",
								"date": "2019-10-11  12:30"
							},
							{
								"prize": "1000 рублей",
								"phone": "*** ***-09-01 / **bus@mail.ru",
								"date": "2019-10-11  12:30"
							},
							{
								"prize": "1000 рублей",
								"phone": "*** ***-09-01 / **bus@mail.ru",
								"date": "2019-10-11  12:30"
							},
							{
								"prize": "1000 рублей",
								"phone": "*** ***-09-01 / **bus@mail.ru",
								"date": "2019-10-11  12:30"
							},
							{
								"prize": "1000 рублей",
								"phone": "*** ***-09-01 / **bus@mail.ru",
								"date": "2019-10-11  12:30"
							}
						]
					}
				},
				{
					"title": "3000 рублей",
					"id": "weekly_prize_tab",
					"table": {
						"cols": {
							"prize": "Приз",
							"phone": "Номер телефона",
							"date": "Дата"
						},
						"contents": [
							{
								"prize": "3000 рублей",
								"phone": "*** ***-12-02 / **isi@gmail.com",
								"date": "2019-10-22  11:59"
							},
							{
								"prize": "3000 рублей",
								"phone": "*** ***-12-02 / **isi@gmail.com",
								"date": "2019-10-22  11:59"
							},
							{
								"prize": "3000 рублей",
								"phone": "*** ***-12-02 / **isi@gmail.com",
								"date": "2019-10-22  11:59"
							},
							{
								"prize": "3000 рублей",
								"phone": "*** ***-12-02 / **isi@gmail.com",
								"date": "2019-10-22  11:59"
							},
							{
								"prize": "3000 рублей",
								"phone": "*** ***-12-02 / **isi@gmail.com",
								"date": "2019-10-22  11:59"
							},
							{
								"prize": "3000 рублей",
								"phone": "*** ***-12-02 / **isi@gmail.com",
								"date": "2019-10-22  11:59"
							},
							{
								"prize": "3000 рублей",
								"phone": "*** ***-12-02 / **isi@gmail.com",
								"date": "2019-10-22  11:59"
							}
						]
					}
				},
				{
					"title": "1 000 000 рублей",
					"id": "main_prize_tab",
					"table": {
						"cols": {
							"prize": "Приз",
							"phone": "Номер телефона",
							"date": "Дата"
						},
						"contents": [
							{
								"prize": "1000000 рублей",
								"phone": "*** ***-12-02 / **isi@gmail.com",
								"date": "2019-10-22  11:59"
							}
						]
					}
				}
			]
		},
		"faq": {
			"title": "Вопросы и ответы",
			"tip": "Если вы&nbsp;не&nbsp;нашли ответа на&nbsp;свой вопрос, <a href='#' data-target='#feedback-popup' class='btn-popup'>свяжитесь с&nbsp;нами</a>",
			"content": [
				{
					"question": "Как забрать выигранный подарок?",
					"answer": "Есть много вариантов Lorem Ipsum, но большинство из них имеет не всегда приемлемые модификации."
				},
				{
					"question": "Как зарегистрироваться на сайте?",
					"answer": "Есть много вариантов Lorem Ipsum, но большинство из них имеет не всегда приемлемые модификации, например, юмористические вставки или слова, которые даже отдалённо не напоминают латынь. Если вам нужен Lorem Ipsum для серьёзного проекта, вы наверняка не хотите какой-нибудь шутки, скрытой в середине абзаца. Также все другие известные генераторы Lorem Ipsum используют один и тот же текст, который они просто повторяют, пока не достигнут нужный объём."
				},
				{
					"question": "Каковы сроки проведения акции?",
					"answer": "Ответ."
				}
			]
		},
		"products": {
			"title": "О ПРОДУКТЕ",
			"content": [
				{
					"title": "Колбаски <br>по-итальянски",
					"img": {
						"src": "build/img/prod-1.png",
						"alt": "Колбаски"
					},
					"btn": {
						"url": "#",
						"title": "Купить"
					}
				},
				{
					"title": "Колбаски <br>по-балкански",
					"img": {
						"src": "build/img/prod-2.png",
						"alt": "Колбаски"
					},
					"btn": {
						"url": "#",
						"title": "Купить"
					}
				},
				{
					"title": "Колбаски <br>баварские",
					"img": {
						"src": "build/img/prod-3.png",
						"alt": "Колбаски"
					},
					"btn": {
						"url": "#",
						"title": "Купить"
					}
				},
				{
					"title": "Колбаски оригинальные",
					"img": {
						"src": "build/img/prod-4.png",
						"alt": "Колбаски"
					},
					"btn": {
						"url": "#",
						"title": "Купить"
					}
				},
				{
					"title": "Котлеты &laquo;авторские&raquo; с&nbsp;сыром и&nbsp;карри",
					"img": {
						"src": "build/img/prod-5.png",
						"alt": "Котлеты"
					},
					"btn": {
						"url": "#",
						"title": "Купить"
					}
				},
				{
					"title": "Котлеты сливочные с&nbsp;сыром",
					"img": {
						"src": "build/img/prod-6.png",
						"alt": "Котлеты"
					},
					"btn": {
						"url": "#",
						"title": "Купить"
					}
				},
				{
					"title": "Митболы <br>со&nbsp;шпинатом",
					"img": {
						"src": "build/img/prod-7.png",
						"alt": "Митболы"
					},
					"btn": {
						"url": "#",
						"title": "Купить"
					}
				},
				{
					"title": "Митболы с&nbsp;творожным сыром",
					"img": {
						"src": "build/img/prod-8.png",
						"alt": "Митболы"
					},
					"btn": {
						"url": "#",
						"title": "Купить"
					}
				},
				{
					"title": "Митболы",
					"img": {
						"src": "build/img/prod-9.png",
						"alt": "Митболы"
					},
					"btn": {
						"url": "#",
						"title": "Купить"
					}
				},
				{
					"title": "Зразы с перловыми хлопьями",
					"class": "product--new",
					"img": {
						"src": "build/img/prod-11.png",
						"alt": "Зразы"
					},
					"btn": {
						"url": "#",
						"title": "Купить"
					}
				},
				{
					"title": "Митболы с овсяными хлопьями",
					"class": "product--new",
					"img": {
						"src": "build/img/prod-12.png",
						"alt": "Митболы"
					},
					"btn": {
						"url": "#",
						"title": "Купить"
					}
				},
				{
					"title": "Биточки с гречневыми хлопьями",
					"class": "product--new",
					"img": {
						"src": "build/img/prod-13.png",
						"alt": "Биточки"
					},
					"btn": {
						"url": "#",
						"title": "Купить"
					}
				},
				{
					"title": "Биточки <br>с&nbsp;сыром",
					"img": {
						"src": "build/img/prod-10.png",
						"alt": "Биточки"
					},
					"btn": {
						"url": "#",
						"title": "Купить"
					}
				}
			]
		},
		"about": {
			"title": "О нас",
			"content": [
				{
					"class": "",
					"text": "Интенсивный темп жизни современных горожан рождает новые тренды в&nbsp;питании. Мы&nbsp;ценим время и&nbsp;ищем кулинарные лайфхаки: хотим приготовить интересный ужин быстро и&nbsp;просто, при этом максимально насытить его вкусом и&nbsp;пользой.<br><br> Продукты &laquo;Петруха Мастер&raquo; легко приготовить за&nbsp;10&nbsp;минут! Для большой компании и&nbsp;уединения, для праздничного и&nbsp;ежедневного стола. Колбаски с&nbsp;золотистой корочкой не&nbsp;оставят вас равнодушными!",
					"img": {
						"src": "build/img/about-1.jpg",
						"alt": ""
					}
				},
				{
					"img": {
						"src": "build/img/about-2.jpg",
						"alt": ""
					},
					"text": "&laquo;Петруха Мастер&raquo;&nbsp;&mdash; это котлеты, биточки и&nbsp;митболы с&nbsp;разнообразными начинками. Тягучий сыр сулугуни, мягкий творожный сыр, шпинат&nbsp;&mdash; отлично сочетаются с&nbsp;нежным мясом птицы."
				},
				{
					"img": {
						"src": "build/img/about-3.jpg",
						"alt": ""
					},
					"text": "Котлета с&nbsp;начинкой&nbsp;&mdash; довольно трудоемкий рецепт для домашнего приготовления с&nbsp;нуля. Преимущество продуктов &laquo;Петруха Мастер&raquo; в&nbsp;том, что все трудности по&nbsp;приготовлению бренд берет на&nbsp;себя, для того чтобы вы&nbsp;могли быстро приготовить обед или ужин и&nbsp;были уверены в&nbsp;результате! С&nbsp;&laquo;Петруха Мастер&raquo; ваши блюда всегда получаются!"
				}
			]
		},
		"rules": {
			"title": "правила",
			"content": [
				{
					"title": "Купи 2&nbsp;любые упаковки &laquo;Петруха Мастер&raquo;",
					"img": {
						"src": "build/img/prod-3.png",
						"alt": ""
					},
					"img2": {
						"src": "build/img/prod-8.png",
						"alt": ""
					},
					"rules": "<b>&bull; 2&nbsp;единицы товара</b> позволяют поучаствовать в&nbsp;розыгрыше призов первого порога; <br><br><b>&bull; 4&nbsp;единицы товара</b> позволяют принять участие в&nbsp;розыгрыше призов второго порога; <br><br><b>&bull; 8&nbsp;единиц товара</b> позволяют принять участие в&nbsp;розыгрыше главного приза."
				},
				{
					"title": "Загрузи чек",
					"img": {
						"src": "build/img/qr.png",
						"alt": ""
					}
				},
				{
					"title": "Выиграй отличные призы",
					"weekly": {
						"title": "Каждые 15 дней",
						"img": {
							"src": "build/img/3000.png",
							"alt": ""
						},
						"btn": {
							"title": "всего 300"
						}
					},
					"daily": {
						"title": "Каждую неделю",
						"img": {
							"src": "build/img/1000.png",
							"alt": ""
						},
						"btn": {
							"title": "всего 495"
						}
					},
					"main": {
						"title": "<span class='first'><span class='fire-anim'>главный приз</span></span> <span class='line'><span class='fire-anim'>1&nbsp;000&nbsp;000</span></span> <span class='currency'><span class='fire-anim'>рублей</span></span>"
					}
				}
			]
		}
	},
	"states": {
		"waiting": {
			"title": "ожидается <br>розыгрыш",
			"icon": "build/img/state-clock.png"
		},
		"win": {
			"title": "<span class='marked'>Одобрен</span>",
			"icon": "build/img/state-check.png"
		},
		"win-p": {
			"title": "<span class='marked'>приз получен</span>",
			"icon": "build/img/state-check.png"
		},
		"lose": {
			"title": "чек не прошел проверку <br>(дата чека вне периода акции)",
			"icon": "build/img/state-cross.png"
		},
		"lose-p": {
			"title": "не выиграл",
			"icon": "build/img/state-cross.png"
		}
	},
	"popups": {
		"products": {
			"title": "Количество ваших купленных продуктов - <b>100</b>",
			"content": [
				{
					"img": {
						"src": "build/img/prod-3.png",
						"alt": ""
					},
					"count": "2",
					"chance": "Это 50 шансов на&nbsp;приз",
					"prize": {
						"src": "build/img/1000.png",
						"alt": ""
					},
					"prizeType": "img"
				},
				{
					"img": {
						"src": "build/img/prod-8.png",
						"alt": ""
					},
					"count": "4",
					"chance": "Это 25 шансов на&nbsp;приз",
					"prize": {
						"src": "build/img/3000.png",
						"alt": ""
					},
					"prizeType": "img"
				},
				{
					"img": {
						"src": "build/img/prod-2.png",
						"alt": ""
					},
					"count": "8",
					"chance": "Это 12 шансов на&nbsp;приз",
					"prize": "<span class='first'>главный приз</span> <span class='line'>1&nbsp;000&nbsp;000</span> <span class='currency'>рублей</span>"
				}
			]
		},
		"register": {
			"title": "регистрация <br>учетной записи",
			"subtitle": "Автроизация через учетную запись:",
			"tip": "или <a href='#'>отправить активационное письмо повторно</a>",
			"recaptcha": "6Le9FqcZAAAAAA_ahfKsgxe0y_-9kv5KukOW2D5W",
			"services": [
				{
					"icon": "gmail",
					"url": "#"
				},
				{
					"icon": "ya",
					"url": "#"
				},
				{
					"icon": "mail",
					"url": "#"
				}
			],
			"form": [
				{
					"type": "email",
					"name": "email",
					"label": "Или использовать e-mail для регистрации",
					"required": "required",
					"error": "поле неправильно заполнено"
				},
				{
					"type": "text",
					"name": "code",
					"label": "код из WhatsApp",
					"required": "required",
					"error": "поле не заполнено",
					"info": "Если ранее загружались чеки через WhatsApp, вы&nbsp;можете добавить их&nbsp;в&nbsp;учётную запись на&nbsp;сайте введя команду &laquo;сайт&raquo; в&nbsp;диалоге с&nbsp;чат-ботом. В&nbsp;ответ вы&nbsp;получите код для привязки WhatsApp-аккаунта"
				},
				{
					"type": "checkbox",
					"name": "rules_agreement",
					"label": "я согласен с <a href='build/assets/rules.pdf'>правилами акции, с пользовательским соглашением и с положением о конфиденциальности</a>",
					"error": "поле неправильно заполнено",
					"required": "required"
				}
			],
			"actions": [
				{
					"title": "Сохранить",
					"action": "register",
					"style": "primary"
				},
				{
					"title": "авторизоваться",
					"action": "login",
					"style": "plain"
				}
			]
		},
		"login": {
			"title": "АВТОРизация <br>учетной записи",
			"subtitle": "При помощи:",
			"services": [
				{
					"icon": "gmail",
					"url": "#"
				},
				{
					"icon": "ya",
					"url": "#"
				},
				{
					"icon": "mail",
					"url": "#"
				}
			],
			"form": [
				{
					"type": "email",
					"name": "email",
					"label": "Или использовать <br>e-mail",
					"required": "required",
					"error": "Введите корректный адрес электронной почты"
				},
				{
					"type": "password",
					"name": "password",
					"label": "Пароль",
					"required": "required",
					"error": "поле не заполнено"
				}
			],
			"actions": [
				{
					"title": "Войти",
					"action": "login",
					"style": "primary"
				},
				{
					"title": "зарегистрироваться",
					"action": "register",
					"style": "plain"
				}
			]
		},
		"success": {
			"title": "Спасибо <br>за обращение!",
			"subtitle": "Ваша заявка будет обработана в&nbsp;течении 24&nbsp;часов.",
			"actions": [
				{
					"title": "Закрыть",
					"action": "close",
					"style": "primary"
				}
			]
		},
		"success_wa": {
			"title": "Спасибо!",
			"subtitle": "Учётная запись WhatsApp присоединена, чеки импортированы",
			"actions": [
				{
					"title": "Закрыть",
					"action": "close",
					"style": "primary"
				}
			]
		},
		"rules": {
			"title": "К&nbsp;сожалению вы&nbsp;не&nbsp;можете <br>принять участие в&nbsp;нашей <br>акции",
			"actions": [
				{
					"title": "Правила",
					"action": "rules",
					"style": "primary",
					"url": "#"
				}
			]
		},
		"forget": {
			"title": "напомнить пароль",
			"form": [
				{
					"type": "email",
					"name": "email",
					"label": "e-mail, указанный <br>при регистрации",
					"required": "required",
					"error": "Введите корректный адрес электронной почты"
				}
			],
			"actions": [
				{
					"title": "Отправить",
					"action": "send",
					"style": "primary"
				}
			]
		},
		"age": {
			"title": "Вам исполнилось 18 лет?",
			"subtitle": "Просим подтвердить ваш возраст, прежде чем принять участие в&nbsp;акции.",
			"actions": [
				{
					"title": "Да",
					"action": "yes",
					"style": "primary"
				},
				{
					"title": "Нет",
					"action": "no",
					"style": "secondary"
				}
			]
		},
		"qr": {
			"title": "Сканирование",
			"subtitle": "Наведите камеру на QR-код",
			"actions": [
				{
					"title": "Ввести данные вручную",
					"action": "inp",
					"style": "primary"
				},
				{
					"title": "Загрузить фото чека",
					"action": "load-check",
					"style": "secondary"
				}
			]
		},
		"feedback": {
			"title": "Задать вопрос",
			"recaptcha": "6Le9FqcZAAAAAA_ahfKsgxe0y_-9kv5KukOW2D5W",
			"form": [
				{
					"type": "text",
					"name": "name",
					"label": "Ваше имя",
					"error": "поле неправильно заполнено",
					"required": "required"
				},
				{
					"type": "email",
					"name": "email",
					"label": "Ваш e-mail",
					"error": "поле неправильно заполнено",
					"required": "required"
				},
				{
					"type": "select",
					"name": "theme_id",
					"label": "Тема обращения",
					"error": "поле неправильно заполнено",
					"options": [
						{
							"title": "общие вопросы",
							"selected": true,
							"id": 1
						},
						{
							"title": "Технические вопросы",
							"selected": false,
							"id": 2
						},
						{
							"title": "Административные вопросы",
							"selected": false,
							"id": 3
						}
					]
				},
				{
					"type": "textarea",
					"name": "message",
					"label": "Сообщение",
					"error": "поле неправильно заполнено",
					"required": "required"
				},
				{
					"type": "file",
					"name": "file_contents",
					"label": "Изображение",
					"placeholder": "Обзор",
					"error": "поле неправильно заполнено",
					"required": "required"
				},
				{
					"type": "checkbox",
					"name": "rules_agreement",
					"label": "я согласен с <a href='build/assets/rules.pdf'>правилами акции, с пользовательским соглашением и с положением о конфиденциальности</a>",
					"error": "поле неправильно заполнено",
					"required": "required"
				}
			],
			"actions": [
				{
					"title": "Отправить",
					"action": "send",
					"style": "primary"
				}
			]
		}
	},
	"header": {

	},
	"footer": {
		"services": {
			"title": "мы в социальных сетях",
			"content": [
				{
					"icon": "vk",
					"url": "#"
				},
				{
					"icon": "inst",
					"url": "#"
				},
				{
					"icon": "youtube",
					"url": "#"
				},
				{
					"icon": "dzen",
					"url": "#"
				},
				{
					"icon": "twitter",
					"url": "#"
				},
				{
					"icon": "fb",
					"url": "#"
				}
			]
		},
		"copyright": "&copy;&nbsp;2020 Petruha International. Все права защищены.",
		"rules": {
			"text": "Полные правила акции   ",
			"url": "build/assets/rules.pdf"
		},
		"terms": {
			"text": " Политика конфиденциальности",
			"url": "build/assets/terms.pdf"
		},
		"feedback": "обратная связь <br><a href='mailto:info@masternamillion.ru'>info@masternamillion.ru</a>"
	}
}
